core_tb.vcd
$date
	Wed Nov 27 21:57:39 2024
$end
$version
	Icarus Verilog
$end
$timescale
	1ps
$end
$scope module core_tb $end
$var wire 1 ! ofifo_valid $end
$var wire 128 " sfp_out [127:0] $end
$var wire 34 # inst_q [33:0] $end
$var parameter 32 $ bw $end
$var parameter 32 % col $end
$var parameter 32 & len_kij $end
$var parameter 32 ' len_nij $end
$var parameter 32 ( len_onij $end
$var parameter 32 ) psum_bw $end
$var parameter 32 * row $end
$var reg 11 + A_pmem [10:0] $end
$var reg 11 , A_pmem_q [10:0] $end
$var reg 11 - A_xmem [10:0] $end
$var reg 11 . A_xmem_q [10:0] $end
$var reg 1 / CEN_pmem $end
$var reg 1 0 CEN_pmem_q $end
$var reg 1 1 CEN_xmem $end
$var reg 1 2 CEN_xmem_q $end
$var reg 32 3 D_xmem [31:0] $end
$var reg 32 4 D_xmem_q [31:0] $end
$var reg 1 5 WEN_pmem $end
$var reg 1 6 WEN_pmem_q $end
$var reg 1 7 WEN_xmem $end
$var reg 1 8 WEN_xmem_q $end
$var reg 1 9 acc $end
$var reg 1 : acc_q $end
$var reg 1 ; clk $end
$var reg 1 < execute $end
$var reg 1 = execute_q $end
$var reg 1 > ififo_rd $end
$var reg 1 ? ififo_rd_q $end
$var reg 1 @ ififo_wr $end
$var reg 1 A ififo_wr_q $end
$var reg 2 B inst_w [1:0] $end
$var reg 2 C inst_w_q [1:0] $end
$var reg 1 D l0_rd $end
$var reg 1 E l0_rd_q $end
$var reg 1 F l0_wr $end
$var reg 1 G l0_wr_q $end
$var reg 1 H load $end
$var reg 1 I load_q $end
$var reg 1 J ofifo_rd $end
$var reg 1 K ofifo_rd_q $end
$var reg 1 L reset $end
$var integer 32 M captured_data [31:0] $end
$var integer 32 N i [31:0] $end
$var integer 32 O t [31:0] $end
$var integer 32 P x_file [31:0] $end
$var integer 32 Q x_scan_file [31:0] $end
$scope module core_instance $end
$var wire 32 R D_xmem [31:0] $end
$var wire 1 ; clk $end
$var wire 34 S inst [33:0] $end
$var wire 1 ! ofifo_valid $end
$var wire 1 L reset $end
$var wire 128 T sfp_out [127:0] $end
$var wire 1 U ofifo_rd $end
$var wire 1 V load $end
$var wire 1 W l0_wr $end
$var wire 1 X l0_rd $end
$var wire 1 Y ififo_wr $end
$var wire 1 Z ififo_rd $end
$var wire 1 [ execute $end
$var wire 1 \ acc $end
$var wire 1 ] WEN_xmem $end
$var wire 1 ^ WEN_pmem $end
$var wire 128 _ Q_act [127:0] $end
$var wire 1 ` CEN_xmem $end
$var wire 1 a CEN_pmem $end
$var wire 11 b A_xmem [10:0] $end
$var wire 11 c A_pmem [10:0] $end
$var parameter 32 d bw $end
$var parameter 32 e col $end
$var parameter 32 f psum_bw $end
$var parameter 32 g row $end
$scope module activation_sram $end
$var wire 11 h A [10:0] $end
$var wire 1 ` CEN $end
$var wire 1 ; CLK $end
$var wire 128 i D [127:0] $end
$var wire 128 j Q [127:0] $end
$var wire 1 ] WEN $end
$var parameter 32 k num $end
$var reg 11 l add_q [10:0] $end
$upscope $end
$upscope $end
$upscope $end
$enddefinitions $end
$comment Show the parameter values. $end
$dumpall
b100000000000 k
b1000 g
b10000 f
b1000 e
b100 d
b1000 *
b10000 )
b10000 (
b100100 '
b1001 &
b1000 %
b100 $
$end
#0
$dumpvars
bx l
bx j
b0 i
b0 h
b0 c
b0 b
1a
1`
bx _
1^
1]
0\
0[
0Z
0Y
0X
0W
0V
0U
bz T
b110000000000011000000000000000000 S
b0 R
b1 Q
b10000000000000000000000000000011 P
bx O
bx N
b101110001011100010111000100011 M
1L
0K
0J
0I
0H
0G
0F
0E
0D
b0 C
b0 B
0A
0@
0?
0>
0=
0<
0;
0:
09
18
17
16
15
b0 4
b0 3
12
11
10
1/
b0 .
b0 -
b0 ,
b0 +
b110000000000011000000000000000000 #
bz "
z!
$end
#1000
b0 N
1;
#1500
0;
#2000
b1 N
1;
#2500
0;
#3000
b10 N
1;
#3500
0;
#4000
b11 N
1;
#4500
0;
#5000
b100 N
1;
#5500
0;
#6000
b101 N
1;
#6500
0;
#7000
b110 N
1;
#7500
0;
#8000
b111 N
1;
#8500
0;
#9000
b1000 N
1;
#9500
0;
#10000
b1001 N
1;
#10500
0;
#11000
b1010 N
1;
#11500
0L
0;
#12000
1;
#12500
0;
#13000
b0 O
1;
#13500
01
07
b110000000000000000000000110010 3
0;
#14000
0]
0`
08
b110000000000000000000000000000000 #
b110000000000000000000000000000000 S
02
b110000000000000000000000110010 i
b110000000000000000000000110010 4
b110000000000000000000000110010 R
b1 O
1;
#14500
b1 -
b1000000001000100011000000110010 3
0;
#15000
b1 b
b1 h
b110000000000000000000000010000000 #
b110000000000000000000000010000000 S
b1 .
b1000000001000100011000000110010 i
b1000000001000100011000000110010 4
b1000000001000100011000000110010 R
b10 O
1;
#15500
b10 -
b100000010001000101000010000010 3
0;
#16000
b10 b
b10 h
b110000000000000000000000100000000 #
b110000000000000000000000100000000 S
b10 .
b100000010001000101000010000010 i
b100000010001000101000010000010 4
b100000010001000101000010000010 R
b11 O
1;
#16500
b11 -
b0 3
0;
#17000
b11 b
b11 h
b110000000000000000000000110000000 #
b110000000000000000000000110000000 S
b11 .
b0 i
b0 4
b0 R
b100 O
1;
#17500
b100 -
0;
#18000
b100 b
b100 h
b110000000000000000000001000000000 #
b110000000000000000000001000000000 S
b100 .
b101 O
1;
#18500
b101 -
b100000000100010010000000100001 3
0;
#19000
b101 b
b101 h
b110000000000000000000001010000000 #
b110000000000000000000001010000000 S
b101 .
b100000000100010010000000100001 i
b100000000100010010000000100001 4
b100000000100010010000000100001 R
b110 O
1;
#19500
b110 -
b10000000000000000000000110000 3
0;
#20000
b110 b
b110 h
b110000000000000000000001100000000 #
b110000000000000000000001100000000 S
b110 .
b10000000000000000000000110000 i
b10000000000000000000000110000 4
b10000000000000000000000110000 R
b111 O
1;
#20500
b111 -
b10000000000000001000001110001 3
0;
#21000
b111 b
b111 h
b110000000000000000000001110000000 #
b110000000000000000000001110000000 S
b111 .
b10000000000000001000001110001 i
b10000000000000001000001110001 4
b10000000000000001000001110001 R
b1000 O
1;
#21500
b1000 -
b10000000000000001000010000001 3
0;
#22000
b1000 b
b1000 h
b110000000000000000000010000000000 #
b110000000000000000000010000000000 S
b1000 .
b10000000000000001000010000001 i
b10000000000000001000010000001 4
b10000000000000001000010000001 R
b1001 O
1;
#22500
b1001 -
b110000000000010010000000110010 3
0;
#23000
b1001 b
b1001 h
b110000000000000000000010010000000 #
b110000000000000000000010010000000 S
b1001 .
b110000000000010010000000110010 i
b110000000000010010000000110010 4
b110000000000010010000000110010 R
b1010 O
1;
#23500
b1010 -
b110000001000010011000000100011 3
0;
#24000
b1010 b
b1010 h
b110000000000000000000010100000000 #
b110000000000000000000010100000000 S
b1010 .
b110000001000010011000000100011 i
b110000001000010011000000100011 4
b110000001000010011000000100011 R
b1011 O
1;
#24500
b1011 -
b110000001100010001000001010011 3
0;
#25000
b1011 b
b1011 h
b110000000000000000000010110000000 #
b110000000000000000000010110000000 S
b1011 .
b110000001100010001000001010011 i
b110000001100010001000001010011 4
b110000001100010001000001010011 R
b1100 O
1;
#25500
b1100 -
b1000000001100100011000001010011 3
0;
#26000
b1100 b
b1100 h
b110000000000000000000011000000000 #
b110000000000000000000011000000000 S
b1100 .
b1000000001100100011000001010011 i
b1000000001100100011000001010011 4
b1000000001100100011000001010011 R
b1101 O
1;
#26500
b1101 -
b1000000010000110101000000010011 3
0;
#27000
b1101 b
b1101 h
b110000000000000000000011010000000 #
b110000000000000000000011010000000 S
b1101 .
b1000000010000110101000000010011 i
b1000000010000110101000000010011 4
b1000000010000110101000000010011 R
b1110 O
1;
#27500
b1110 -
b110000001100010011000000110100 3
0;
#28000
b1110 b
b1110 h
b110000000000000000000011100000000 #
b110000000000000000000011100000000 S
b1110 .
b110000001100010011000000110100 i
b110000001100010011000000110100 4
b110000001100010011000000110100 R
b1111 O
1;
#28500
b1111 -
b10000010100001000000001000100 3
0;
#29000
b1111 b
b1111 h
b110000000000000000000011110000000 #
b110000000000000000000011110000000 S
b1111 .
b10000010100001000000001000100 i
b10000010100001000000001000100 4
b10000010100001000000001000100 R
b10000 O
1;
#29500
b10000 -
b10000000001000001100001 3
0;
#30000
b10000 b
b10000 h
b110000000000000000000100000000000 #
b110000000000000000000100000000000 S
b10000 .
b10000000001000001100001 i
b10000000001000001100001 4
b10000000001000001100001 R
b10001 O
1;
#30500
b10001 -
b1000000010000100001000010000010 3
0;
#31000
b10001 b
b10001 h
b110000000000000000000100010000000 #
b110000000000000000000100010000000 S
b10001 .
b1000000010000100001000010000010 i
b1000000010000100001000010000010 4
b1000000010000100001000010000010 R
b10010 O
1;
#31500
b10010 -
b110000000100100010000001000001 3
0;
#32000
b10010 b
b10010 h
b110000000000000000000100100000000 #
b110000000000000000000100100000000 S
b10010 .
b110000000100100010000001000001 i
b110000000100100010000001000001 4
b110000000100100010000001000001 R
b10011 O
1;
#32500
b10011 -
b100000001100000011000000100001 3
0;
#33000
b10011 b
b10011 h
b110000000000000000000100110000000 #
b110000000000000000000100110000000 S
b10011 .
b100000001100000011000000100001 i
b100000001100000011000000100001 4
b100000001100000011000000100001 R
b10100 O
1;
#33500
b10100 -
b100000010000100100000000010001 3
0;
#34000
b10100 b
b10100 h
b110000000000000000000101000000000 #
b110000000000000000000101000000000 S
b10100 .
b100000010000100100000000010001 i
b100000010000100100000000010001 4
b100000010000100100000000010001 R
b10101 O
1;
#34500
b10101 -
b100000000000010000000100000001 3
0;
#35000
b10101 b
b10101 h
b110000000000000000000101010000000 #
b110000000000000000000101010000000 S
b10101 .
b100000000000010000000100000001 i
b100000000000010000000100000001 4
b100000000000010000000100000001 R
b10110 O
1;
#35500
b10110 -
b10000000000100010000100010000 3
0;
#36000
b10110 b
b10110 h
b110000000000000000000101100000000 #
b110000000000000000000101100000000 S
b10110 .
b10000000000100010000100010000 i
b10000000000100010000100010000 4
b10000000000100010000100010000 R
b10111 O
1;
#36500
b10111 -
b10001001001000000 3
0;
#37000
b10111 b
b10111 h
b110000000000000000000101110000000 #
b110000000000000000000101110000000 S
b10111 .
b10001001001000000 i
b10001001001000000 4
b10001001001000000 R
b11000 O
1;
#37500
b11000 -
b1001000000 3
0;
#38000
b11000 b
b11000 h
b110000000000000000000110000000000 #
b110000000000000000000110000000000 S
b11000 .
b1001000000 i
b1001000000 4
b1001000000 R
b11001 O
1;
#38500
b11001 -
b100100010000000100000 3
0;
#39000
b11001 b
b11001 h
b110000000000000000000110010000000 #
b110000000000000000000110010000000 S
b11001 .
b100100010000000100000 i
b100100010000000100000 4
b100100010000000100000 R
b11010 O
1;
#39500
b11010 -
b10000000100010010000000110000 3
0;
#40000
b11010 b
b11010 h
b110000000000000000000110100000000 #
b110000000000000000000110100000000 S
b11010 .
b10000000100010010000000110000 i
b10000000100010010000000110000 4
b10000000100010010000000110000 R
b11011 O
1;
#40500
b11011 -
b10000001000100001000001100000 3
0;
#41000
b11011 b
b11011 h
b110000000000000000000110110000000 #
b110000000000000000000110110000000 S
b11011 .
b10000001000100001000001100000 i
b10000001000100001000001100000 4
b10000001000100001000001100000 R
b11100 O
1;
#41500
b11100 -
b10000001000110011000001010000 3
0;
#42000
b11100 b
b11100 h
b110000000000000000000111000000000 #
b110000000000000000000111000000000 S
b11100 .
b10000001000110011000001010000 i
b10000001000110011000001010000 4
b10000001000110011000001010000 R
b11101 O
1;
#42500
b11101 -
b10000000000010001000000100000 3
0;
#43000
b11101 b
b11101 h
b110000000000000000000111010000000 #
b110000000000000000000111010000000 S
b11101 .
b10000000000010001000000100000 i
b10000000000010001000000100000 4
b10000000000010001000000100000 R
b11110 O
1;
#43500
b11110 -
b10000000000000000000000110001 3
0;
#44000
b11110 b
b11110 h
b110000000000000000000111100000000 #
b110000000000000000000111100000000 S
b11110 .
b10000000000000000000000110001 i
b10000000000000000000000110001 4
b10000000000000000000000110001 R
b11111 O
1;
#44500
b11111 -
b10000000100000100000000100001 3
0;
#45000
b11111 b
b11111 h
b110000000000000000000111110000000 #
b110000000000000000000111110000000 S
b11111 .
b10000000100000100000000100001 i
b10000000100000100000000100001 4
b10000000100000100000000100001 R
b100000 O
1;
#45500
b100000 -
b1000000011000000010001 3
0;
#46000
b100000 b
b100000 h
b110000000000000000001000000000000 #
b110000000000000000001000000000000 S
b100000 .
b1000000011000000010001 i
b1000000011000000010001 4
b1000000011000000010001 R
b100001 O
1;
#46500
b100001 -
b1000001 3
0;
#47000
b100001 b
b100001 h
b110000000000000000001000010000000 #
b110000000000000000001000010000000 S
b100001 .
b1000001 i
b1000001 4
b1000001 R
b100010 O
1;
#47500
b100010 -
b100000000000000000000001000001 3
0;
#48000
b100010 b
b100010 h
b110000000000000000001000100000000 #
b110000000000000000001000100000000 S
b100010 .
b100000000000000000000001000001 i
b100000000000000000000001000001 4
b100000000000000000000001000001 R
b100011 O
1;
#48500
b100011 -
b110000000100010010000000110001 3
0;
#49000
b100011 b
b100011 h
b110000000000000000001000110000000 #
b110000000000000000001000110000000 S
b100011 .
b110000000100010010000000110001 i
b110000000100010010000000110001 4
b110000000100010010000000110001 R
b100100 O
1;
#49500
b0 -
11
17
0;
#50000
b0 b
b0 h
1]
1`
b0 .
18
b110000000000011000000000000000000 #
b110000000000011000000000000000000 S
12
1;
#50500
b1 -
01
0;
#51000
b1 b
b1 h
0`
b1 .
b110000000000001000000000010000000 #
b110000000000001000000000010000000 S
02
b0 O
1;
#51500
b10 -
0;
#52000
b10 b
b10 h
b110000000000001000000000100000000 #
b110000000000001000000000100000000 S
b10 .
b1000000001000100011000000110010 _
b1000000001000100011000000110010 j
b1 l
b1 O
1;
#52500
b11 -
0;
#53000
b11 b
b11 h
b100000010001000101000010000010 _
b100000010001000101000010000010 j
b10 l
b110000000000001000000000110000000 #
b110000000000001000000000110000000 S
b11 .
b10 O
1;
#53500
b100 -
0;
#54000
b100 b
b100 h
b110000000000001000000001000000000 #
b110000000000001000000001000000000 S
b100 .
b0 _
b0 j
b11 l
b11 O
1;
#54500
b101 -
0;
#55000
b101 b
b101 h
b100 l
b110000000000001000000001010000000 #
b110000000000001000000001010000000 S
b101 .
b100 O
1;
#55500
b110 -
0;
#56000
b110 b
b110 h
b110000000000001000000001100000000 #
b110000000000001000000001100000000 S
b110 .
b100000000100010010000000100001 _
b100000000100010010000000100001 j
b101 l
b101 O
1;
#56500
b111 -
0;
#57000
b111 b
b111 h
b10000000000000000000000110000 _
b10000000000000000000000110000 j
b110 l
b110000000000001000000001110000000 #
b110000000000001000000001110000000 S
b111 .
b110 O
1;
#57500
b1000 -
0;
#58000
b1000 b
b1000 h
b110000000000001000000010000000000 #
b110000000000001000000010000000000 S
b1000 .
b10000000000000001000001110001 _
b10000000000000001000001110001 j
b111 l
b111 O
1;
#58500
b1001 -
0;
#59000
b1001 b
b1001 h
b10000000000000001000010000001 _
b10000000000000001000010000001 j
b1000 l
b110000000000001000000010010000000 #
b110000000000001000000010010000000 S
b1001 .
b1000 O
1;
#59500
b1010 -
0;
#60000
b1010 b
b1010 h
b110000000000001000000010100000000 #
b110000000000001000000010100000000 S
b1010 .
b110000000000010010000000110010 _
b110000000000010010000000110010 j
b1001 l
b1001 O
1;
#60500
b1011 -
0;
#61000
b1011 b
b1011 h
b110000001000010011000000100011 _
b110000001000010011000000100011 j
b1010 l
b110000000000001000000010110000000 #
b110000000000001000000010110000000 S
b1011 .
b1010 O
1;
#61500
b1100 -
0;
#62000
b1100 b
b1100 h
b110000000000001000000011000000000 #
b110000000000001000000011000000000 S
b1100 .
b110000001100010001000001010011 _
b110000001100010001000001010011 j
b1011 l
b1011 O
1;
#62500
b1101 -
0;
#63000
b1101 b
b1101 h
b1000000001100100011000001010011 _
b1000000001100100011000001010011 j
b1100 l
b110000000000001000000011010000000 #
b110000000000001000000011010000000 S
b1101 .
b1100 O
1;
#63500
b1110 -
0;
#64000
b1110 b
b1110 h
b110000000000001000000011100000000 #
b110000000000001000000011100000000 S
b1110 .
b1000000010000110101000000010011 _
b1000000010000110101000000010011 j
b1101 l
b1101 O
1;
#64500
b1111 -
0;
#65000
b1111 b
b1111 h
b110000001100010011000000110100 _
b110000001100010011000000110100 j
b1110 l
b110000000000001000000011110000000 #
b110000000000001000000011110000000 S
b1111 .
b1110 O
1;
#65500
b10000 -
0;
#66000
b10000 b
b10000 h
b110000000000001000000100000000000 #
b110000000000001000000100000000000 S
b10000 .
b10000010100001000000001000100 _
b10000010100001000000001000100 j
b1111 l
b1111 O
1;
#66500
b10001 -
0;
#67000
b10001 b
b10001 h
b10000000001000001100001 _
b10000000001000001100001 j
b10000 l
b110000000000001000000100010000000 #
b110000000000001000000100010000000 S
b10001 .
b10000 O
1;
#67500
b10010 -
0;
#68000
b10010 b
b10010 h
b110000000000001000000100100000000 #
b110000000000001000000100100000000 S
b10010 .
b1000000010000100001000010000010 _
b1000000010000100001000010000010 j
b10001 l
b10001 O
1;
#68500
b10011 -
0;
#69000
b10011 b
b10011 h
b110000000100100010000001000001 _
b110000000100100010000001000001 j
b10010 l
b110000000000001000000100110000000 #
b110000000000001000000100110000000 S
b10011 .
b10010 O
1;
#69500
b10100 -
0;
#70000
b10100 b
b10100 h
b110000000000001000000101000000000 #
b110000000000001000000101000000000 S
b10100 .
b100000001100000011000000100001 _
b100000001100000011000000100001 j
b10011 l
b10011 O
1;
#70500
b10101 -
0;
#71000
b10101 b
b10101 h
b100000010000100100000000010001 _
b100000010000100100000000010001 j
b10100 l
b110000000000001000000101010000000 #
b110000000000001000000101010000000 S
b10101 .
b10100 O
1;
#71500
b10110 -
0;
#72000
b10110 b
b10110 h
b110000000000001000000101100000000 #
b110000000000001000000101100000000 S
b10110 .
b100000000000010000000100000001 _
b100000000000010000000100000001 j
b10101 l
b10101 O
1;
#72500
b10111 -
0;
#73000
b10111 b
b10111 h
b10000000000100010000100010000 _
b10000000000100010000100010000 j
b10110 l
b110000000000001000000101110000000 #
b110000000000001000000101110000000 S
b10111 .
b10110 O
1;
#73500
b11000 -
0;
#74000
b11000 b
b11000 h
b110000000000001000000110000000000 #
b110000000000001000000110000000000 S
b11000 .
b10001001001000000 _
b10001001001000000 j
b10111 l
b10111 O
1;
#74500
b11001 -
0;
#75000
b11001 b
b11001 h
b1001000000 _
b1001000000 j
b11000 l
b110000000000001000000110010000000 #
b110000000000001000000110010000000 S
b11001 .
b11000 O
1;
#75500
b11010 -
0;
#76000
b11010 b
b11010 h
b110000000000001000000110100000000 #
b110000000000001000000110100000000 S
b11010 .
b100100010000000100000 _
b100100010000000100000 j
b11001 l
b11001 O
1;
#76500
b11011 -
0;
#77000
b11011 b
b11011 h
b10000000100010010000000110000 _
b10000000100010010000000110000 j
b11010 l
b110000000000001000000110110000000 #
b110000000000001000000110110000000 S
b11011 .
b11010 O
1;
#77500
b11100 -
0;
#78000
b11100 b
b11100 h
b110000000000001000000111000000000 #
b110000000000001000000111000000000 S
b11100 .
b10000001000100001000001100000 _
b10000001000100001000001100000 j
b11011 l
b11011 O
1;
#78500
b11101 -
0;
#79000
b11101 b
b11101 h
b10000001000110011000001010000 _
b10000001000110011000001010000 j
b11100 l
b110000000000001000000111010000000 #
b110000000000001000000111010000000 S
b11101 .
b11100 O
1;
#79500
b11110 -
0;
#80000
b11110 b
b11110 h
b110000000000001000000111100000000 #
b110000000000001000000111100000000 S
b11110 .
b10000000000010001000000100000 _
b10000000000010001000000100000 j
b11101 l
b11101 O
1;
#80500
b11111 -
0;
#81000
b11111 b
b11111 h
b10000000000000000000000110001 _
b10000000000000000000000110001 j
b11110 l
b110000000000001000000111110000000 #
b110000000000001000000111110000000 S
b11111 .
b11110 O
1;
#81500
b100000 -
0;
#82000
b100000 b
b100000 h
b110000000000001000001000000000000 #
b110000000000001000001000000000000 S
b100000 .
b10000000100000100000000100001 _
b10000000100000100000000100001 j
b11111 l
b11111 O
1;
#82500
b100001 -
0;
#83000
b100001 b
b100001 h
b1000000011000000010001 _
b1000000011000000010001 j
b100000 l
b110000000000001000001000010000000 #
b110000000000001000001000010000000 S
b100001 .
b100000 O
1;
#83500
b100010 -
0;
#84000
b100010 b
b100010 h
b110000000000001000001000100000000 #
b110000000000001000001000100000000 S
b100010 .
b1000001 _
b1000001 j
b100001 l
b100001 O
1;
#84500
b100011 -
0;
#85000
b100011 b
b100011 h
b100000000000000000000001000001 _
b100000000000000000000001000001 j
b100010 l
b110000000000001000001000110000000 #
b110000000000001000001000110000000 S
b100011 .
b100010 O
1;
#85500
b100100 -
0;
#86000
b100100 b
b100100 h
b110000000000001000001001000000000 #
b110000000000001000001001000000000 S
b100100 .
b110000000100010010000000110001 _
b110000000100010010000000110001 j
b100011 l
b100011 O
1;
#86500
b100101 -
0;
#87000
b100101 b
b100101 h
bx _
bx j
b100100 l
b110000000000001000001001010000000 #
b110000000000001000001001010000000 S
b100101 .
b100100 O
1;
#87500
b0 -
11
0;
#88000
b0 b
b0 h
1`
b0 .
b110000000000011000000000000000000 #
b110000000000011000000000000000000 S
12
b100101 l
1;
